…
```r
summarise(dfNoZero, meanSteps = mean(steps, na.rm=T), medianSteps = median(steps, na.rm=T), totalSteps = sum(steps, na.rm=T))
```

```
## # A tibble: 53 x 4
##    date       meanSteps medianSteps totalSteps
##    <date>         <dbl>       <dbl>      <int>
##  1 2012-10-02      63          63          126
##  2 2012-10-03     140.         61        11352
##  3 2012-10-04     121.         56.5      12116
##  4 2012-10-05     155.         66        13294
##  5 2012-10-06     145.         67        15420
##  6 2012-10-07     102.         52.5      11015
##  7 2012-10-09     135.         48        12811
##  8 2012-10-10      95.2        56.5       9900
##  9 2012-10-11     137.         35        10304
## 10 2012-10-12     157.         46        17382
## # ... with 43 more rows
```
…
